\relax 
\@writefile{toc}{\contentsline {section}{Read Me First!}{x}}
\@@wrindexm@m{Manual}{warnings}{x}
\@@wrindexm@m{Manual}{hazards}{x}
\@writefile{toc}{\contentsline {section}{Hazards and Warnings}{x}}
\@writefile{toc}{\contentsline {subsection}{\leavevmode {\color  {red}Electric Shock Hazard}}{x}}
\@@wrindexm@m{Manual}{electronics}{x}
\@@wrindexm@m{Manual}{wires}{x}
\@@wrindexm@m{Manual}{power supply}{x}
\@writefile{toc}{\contentsline {subsection}{\leavevmode {\color  {red}Burn Hazard}}{x}}
\@@wrindexm@m{Manual}{extruder}{x}
\@@wrindexm@m{Manual}{heater block}{x}
\@@wrindexm@m{Manual}{temperature}{x}
\@@wrindexm@m{Manual}{burns}{x}
\@writefile{toc}{\contentsline {subsection}{\leavevmode {\color  {red}Fire Hazard}}{x}}
\@writefile{toc}{\contentsline {subsection}{\leavevmode {\color  {red}Pinch Hazard}}{x}}
\@writefile{toc}{\contentsline {subsection}{\leavevmode {\color  {red}Static Charge}}{xi}}
\@@wrindexm@m{Manual}{static}{xi}
\@writefile{toc}{\contentsline {subsection}{\leavevmode {\color  {red}Age Warning}}{xi}}
\@writefile{toc}{\contentsline {subsection}{\leavevmode {\color  {red}Modifications and Repairs Warning}}{xi}}
\@writefile{toc}{\contentsline {subsection}{Federal Communications Commission Statement}{xi}}
\@@wrindexm@m{Manual}{FCC}{xi}
\@setckpt{Warnings}{
\setcounter{page}{12}
\setcounter{equation}{0}
\setcounter{enumi}{2}
\setcounter{enumii}{0}
\setcounter{enumiii}{0}
\setcounter{enumiv}{0}
\setcounter{footnote}{0}
\setcounter{mpfootnote}{0}
\setcounter{@memmarkcntra}{0}
\setcounter{storedpagenumber}{1}
\setcounter{book}{0}
\setcounter{part}{0}
\setcounter{chapter}{0}
\setcounter{section}{0}
\setcounter{subsection}{0}
\setcounter{subsubsection}{0}
\setcounter{paragraph}{0}
\setcounter{subparagraph}{0}
\setcounter{@ppsavesec}{0}
\setcounter{@ppsaveapp}{0}
\setcounter{vslineno}{0}
\setcounter{poemline}{0}
\setcounter{modulo@vs}{0}
\setcounter{memfvsline}{0}
\setcounter{verse}{0}
\setcounter{chrsinstr}{0}
\setcounter{poem}{0}
\setcounter{newflo@tctr}{4}
\setcounter{@contsubnum}{0}
\setcounter{maxsecnumdepth}{1}
\setcounter{sidefootnote}{0}
\setcounter{pagenote}{0}
\setcounter{pagenoteshadow}{0}
\setcounter{memfbvline}{0}
\setcounter{bvlinectr}{0}
\setcounter{cp@cntr}{0}
\setcounter{ism@mctr}{0}
\setcounter{xsm@mctr}{0}
\setcounter{csm@mctr}{0}
\setcounter{ksm@mctr}{0}
\setcounter{xksm@mctr}{0}
\setcounter{cksm@mctr}{0}
\setcounter{msm@mctr}{0}
\setcounter{xmsm@mctr}{0}
\setcounter{cmsm@mctr}{0}
\setcounter{bsm@mctr}{0}
\setcounter{workm@mctr}{0}
\setcounter{sheetsequence}{12}
\setcounter{lastsheet}{148}
\setcounter{lastpage}{148}
\setcounter{figure}{0}
\setcounter{lofdepth}{1}
\setcounter{table}{0}
\setcounter{lotdepth}{1}
\setcounter{float@type}{4}
\setcounter{firstlinenum}{5}
\setcounter{linenumincrement}{5}
\setcounter{firstsublinenum}{5}
\setcounter{sublinenumincrement}{5}
\setcounter{pstart}{0}
\setcounter{ballast}{0}
\setcounter{footnoteA}{0}
\setcounter{footnoteB}{0}
\setcounter{footnoteC}{0}
\setcounter{footnoteD}{0}
\setcounter{footnoteE}{0}
\setcounter{footnoteZ}{0}
\setcounter{line}{0}
\setcounter{subline}{0}
\setcounter{labidx}{0}
\setcounter{stanzaindentsrepetition}{0}
\setcounter{addcolcount}{0}
}
